<svg version="1.1" xmlns="http://www.w3.org/2000/svg" xmlns:xlink="http://www.w3.org/1999/xlink" x="0px" y="0px" viewBox="0 0 171.254 31.467" enable-background="new 0 0 171.254 31.467" xml:space="preserve">
    <rect x="3.545" y="0.022" fill="#245F34" width="129.883" height="31.445"/>
    <rect x="0" y="0.022" fill="#FFCA05" width="3.545" height="31.445"/>
    <polygon fill-rule="evenodd" clip-rule="evenodd" fill="#FFCA05" points="16.101,15.907 18.441,13.605 18.441,12.043 16.101,14.333"/>
    <polygon fill-rule="evenodd" clip-rule="evenodd" fill="#FFCA05" points="16.101,10.079 18.441,7.777 18.441,6.302 16.101,8.594"/>
    <polygon fill-rule="evenodd" clip-rule="evenodd" fill="#FFCA05" points="16.101,12.008 18.441,9.706 18.441,8.232 16.101,10.521"/>
    <polygon fill-rule="evenodd" clip-rule="evenodd" fill="#FFCA05" points="15.429,6.321 15.117,6.016 15.117,2.373 14.764,2.373 14.764,5.671 14.454,5.369 14.454,2.373 14.103,2.373 14.103,5.023 13.791,4.72 13.791,2.373 13.44,2.373 13.44,5.848 15.782,8.15 15.782,2.373 15.429,2.373"/>
    <polygon fill-rule="evenodd" clip-rule="evenodd" fill="#FFCA05" points="16.101,13.934 18.441,11.634 18.441,10.159 16.101,12.448"/>
    <polygon fill-rule="evenodd" clip-rule="evenodd" fill="#FFCA05" points="13.44,13.605 15.781,15.907 15.781,14.333 13.44,12.043"/>
    <polygon fill-rule="evenodd" clip-rule="evenodd" fill="#FFCA05" points="18.091,4.72 17.78,5.023 17.78,2.373 17.426,2.373 17.426,5.369 17.115,5.671 17.115,2.373 16.764,2.373 16.764,6.016 16.452,6.321 16.452,2.373 16.101,2.373 16.101,8.15 18.443,5.848 18.443,2.373 18.091,2.373 "/>
    <polygon fill-rule="evenodd" clip-rule="evenodd" fill="#FFCA05" points="13.44,7.777 15.781,10.079 15.781,8.591 13.44,6.302"/>
    <polygon fill-rule="evenodd" clip-rule="evenodd" fill="#FFCA05" points="13.44,9.706 15.781,12.008 15.781,10.52 13.44,8.231"/>
    <polygon fill-rule="evenodd" clip-rule="evenodd" fill="#FFCA05" points="13.44,11.634 15.781,13.936 15.781,12.448 13.44,10.16"/>
    <path fill-rule="evenodd" clip-rule="evenodd" fill="#FFCA05" d="M27.396,12.849h-5.45h-0.247c0.119-0.188,0.191-0.408,0.191-0.648
        c0-0.677-0.552-1.229-1.231-1.229c-0.676,0-1.226,0.552-1.226,1.229c0,0.266,0.086,0.511,0.229,0.712
        c-0.105,0.07-0.176,0.191-0.176,0.327c0,0.138,0.071,0.259,0.176,0.327c-0.144,0.201-0.229,0.447-0.229,0.713
        c0,0.678,0.55,1.229,1.226,1.229c0.679,0,1.231-0.551,1.231-1.229c0-0.238-0.072-0.459-0.191-0.648h1.031h3.207v0.258h-0.419v0.361
        h0.419v0.373h-0.419v0.691h0.419v-0.314h0.62v0.314h0.416v-0.691h-0.416v-0.373h0.416v-0.361h-0.416v-0.258h0.839
        c0.16,0,0.295-0.136,0.295-0.298v-0.184C27.691,12.985,27.556,12.849,27.396,12.849 M21.292,14.279c0,0.35-0.285,0.635-0.635,0.635
        c-0.347,0-0.631-0.284-0.631-0.635c0-0.128,0.038-0.248,0.104-0.346l0.176-0.299c-0.109-0.095-0.179-0.237-0.179-0.395
        c0-0.156,0.07-0.297,0.179-0.394l-0.176-0.299c-0.066-0.098-0.104-0.217-0.104-0.345c0-0.351,0.284-0.634,0.631-0.634
        c0.349,0,0.635,0.283,0.635,0.634c0,0.258-0.297,0.872-0.297,0.872v0.333C20.995,13.406,21.292,14.021,21.292,14.279"/>
    <path fill-rule="evenodd" clip-rule="evenodd" fill="#FFFFFF" d="M11.308,12.103v1.528c0,1.465,0.638,2.402,1.004,2.769 c0.213,0.211,2.393,2.354,2.424,2.384c0.677,0.661,0.794,0.882,0.946,1.258v-1.697c0-1.508-0.766-2.095-1.159-2.477 c-0.918-0.896-1.532-1.486-2.029-1.978C11.558,12.949,11.308,12.103,11.308,12.103"/>
    <path fill-rule="evenodd" clip-rule="evenodd" fill="#FFFFFF" d="M14.524,19.655c-0.918-0.899-1.531-1.488-2.026-1.98 c-0.939-0.941-1.189-1.576-1.189-1.576v1.319c0,1.463,0.663,2.395,1.001,2.778c0.216,0.21,2.4,2.345,2.427,2.373 c0.678,0.663,0.794,0.977,0.947,1.354v-1.79C15.683,20.622,14.917,20.036,14.524,19.655"/>
    <path fill-rule="evenodd" clip-rule="evenodd" fill="#FFFFFF" d="M19.355,5.204c-0.171,0-0.337,0.003-0.504,0.013v0.717
        c0.167-0.01,0.333-0.013,0.504-0.013c5.414,0,9.804,4.391,9.804,9.804c0,5.416-4.39,9.808-9.804,9.808
        c-5.417,0-9.808-4.391-9.808-9.808c0-3.005,1.352-5.694,3.483-7.492V7.317c-2.549,1.92-4.198,4.973-4.198,8.408
        c0,5.812,4.712,10.522,10.524,10.522c5.809,0,10.522-4.71,10.522-10.522C29.877,9.915,25.164,5.204,19.355,5.204"/>
    <path fill-rule="evenodd" clip-rule="evenodd" fill="#FFFFFF" d="M26.797,21.219c0.165-0.223,0.318-0.453,0.461-0.688v-1.41h-0.461 V21.219z"/>
    <path fill-rule="evenodd" clip-rule="evenodd" fill="#FFFFFF" d="M28.148,18.605c0.064-0.204,0.125-0.407,0.175-0.616h-1.526v0.377 h0.231C27.437,18.354,27.891,18.35,28.148,18.605"/>
    <rect x="17.568" y="17.941" fill-rule="evenodd" clip-rule="evenodd" fill="#FFFFFF" width="0.415" height="4.194"/>
    <path fill-rule="evenodd" clip-rule="evenodd" fill="#FFFFFF" d="M16.614,17.128h1.368c0.353,0,0.6,0.075,0.743,0.212
        c0.146,0.133,0.212,0.384,0.212,0.737v3.918c0,0.357-0.067,0.602-0.212,0.738c-0.216,0.218-0.617,0.218-0.947,0.218
        c-0.074-0.006-0.144-0.006-0.211-0.006v1.858c0.137,0.026,0.274,0.05,0.415,0.071v-1.525c0.63,0,1.042-0.216,1.236-0.647v2.273
        c0.046,0,0.09,0,0.138,0c0.087,0,0.172,0,0.259-0.002V18.15c0-0.363,0.072-0.614,0.209-0.761c0.137-0.143,0.386-0.214,0.733-0.214
        c0.353,0,0.871-0.052,1.141,0.214c0.138,0.147,0.202,0.398,0.202,0.761v2.009h-0.938v-2.145h-0.406v6.886
        c0.134-0.015,0.271-0.039,0.406-0.062v-4.272H21.9v4.055c0.192-0.055,0.384-0.116,0.571-0.184v-3.712
        c0-0.42,0.101-0.739,0.531-0.882l-0.474-2.584h0.949l0.159,2.822h0.118l0.158-2.822h0.999l-0.535,2.584
        c0.447,0.157,0.535,0.433,0.535,0.882v2.396c0.276-0.207,0.543-0.432,0.797-0.669v-5.215h2.775c0.02-0.124,0.038-0.251,0.053-0.376
        h-6.497l0.092,0.467c-0.206-0.378-0.596-0.568-1.167-0.568h-0.406c-0.689,0-1.109,0.275-1.266,0.819
        c-0.149-0.569-0.584-0.856-1.309-0.856h-1.779v7.7c0.135,0.048,0.274,0.095,0.411,0.139V17.128z M25.24,20.095l-0.447-0.427
        l0.447-2.319V20.095z"/>
    <path fill-rule="evenodd" clip-rule="evenodd" fill="#FFFFFF" d="M23.475,24.008c0.146-0.073,0.289-0.148,0.43-0.227v-3.174h-0.43 V24.008z"/>
    <rect x="141.405" y="0.022" fill="#248241" width="5.267" height="31.445"/>
    <rect x="132.627" y="0.022" fill="#248241" width="3.514" height="31.445"/>
    <rect x="151.942" y="0.022" fill="#6AA644" width="3.51" height="31.445"/>
    <rect x="162.476" y="0.022" fill="#A5CD39" width="3.509" height="31.445"/>
    <rect x="146.672" y="0.022" fill="#A5CD39" width="1.756" height="31.445"/>
    <rect x="137.896" y="0.022" fill="#245F34" width="1.755" height="31.445"/>
    <rect x="158.964" y="0.022" fill="#FFCA05" width="1.757" height="31.445"/>
    <rect x="169.498" y="0.022" fill="#FFCA05" width="1.755" height="31.445"/>
    <g>
        <path fill="#FFFFFF" d="M36.225,19.042h-1.508v-7.08h3.312c0.743,0,1.325,0.218,1.746,0.653c0.421,0.435,0.632,0.978,0.632,1.629
            c0,0.644-0.213,1.185-0.637,1.624c-0.425,0.439-1.005,0.658-1.741,0.658h-1.804V19.042z M37.827,15.199
            c0.304,0,0.553-0.086,0.748-0.26c0.194-0.174,0.292-0.405,0.292-0.695c0-0.29-0.097-0.521-0.292-0.695
            c-0.195-0.173-0.444-0.26-0.748-0.26h-1.603v1.91H37.827z"/>
        <path fill="#FFFFFF" d="M44.768,19.169c-1.076,0-1.973-0.341-2.691-1.024C41.359,17.462,41,16.583,41,15.507
            c0-1.076,0.359-1.955,1.078-2.638c0.718-0.683,1.615-1.024,2.691-1.024c1.324,0,2.31,0.577,2.961,1.73l-1.295,0.637
            c-0.156-0.297-0.384-0.543-0.685-0.738c-0.3-0.194-0.628-0.291-0.981-0.291c-0.644,0-1.175,0.219-1.592,0.658
            c-0.417,0.439-0.626,0.994-0.626,1.667c0,0.672,0.209,1.227,0.626,1.666c0.417,0.439,0.948,0.659,1.592,0.659
            c0.354,0,0.681-0.096,0.981-0.287c0.301-0.192,0.529-0.439,0.685-0.743l1.295,0.626C47.057,18.589,46.07,19.169,44.768,19.169z"/>
        <path fill="#FFFFFF" d="M55.053,19.042h-1.804l-1.773-2.59l-1.783,2.59H47.9l2.569-3.63l-2.41-3.45h1.794l1.624,2.42l1.603-2.42
            h1.815l-2.409,3.439L55.053,19.042z"/>
        <path fill="#FFFFFF" d="M55.722,11.962h5.169v1.327H57.23v1.252h1.836c0.729,0,1.302,0.216,1.719,0.648
            c0.417,0.432,0.626,0.966,0.626,1.603c0,0.637-0.209,1.171-0.626,1.602c-0.418,0.432-0.99,0.648-1.719,0.648h-3.343V11.962z
            M58.864,15.868H57.23v1.847h1.634c0.297,0,0.54-0.085,0.727-0.254c0.188-0.17,0.281-0.393,0.281-0.669
            c0-0.283-0.094-0.508-0.281-0.674C59.404,15.952,59.161,15.868,58.864,15.868z"/>
        <path fill="#FFFFFF" d="M64.511,16.824h-2.548v-0.701h2.548V16.824z"/>
        <path fill="#FFFFFF" d="M69.012,19.169c-1.033,0-1.898-0.341-2.596-1.024c-0.697-0.683-1.046-1.562-1.046-2.637
            c0-1.076,0.349-1.955,1.046-2.638c0.697-0.683,1.562-1.024,2.596-1.024c1.132,0,2.027,0.466,2.685,1.401l-0.742,0.414
            c-0.206-0.304-0.482-0.552-0.828-0.743c-0.347-0.191-0.718-0.286-1.114-0.286c-0.779,0-1.428,0.27-1.948,0.812
            c-0.52,0.541-0.78,1.229-0.78,2.064c0,0.835,0.26,1.523,0.78,2.064c0.52,0.542,1.169,0.812,1.948,0.812
            c0.396,0,0.767-0.093,1.114-0.281c0.346-0.187,0.622-0.437,0.828-0.749l0.753,0.414C71.021,18.702,70.122,19.169,69.012,19.169z"/>
        <path fill="#FFFFFF" d="M74.531,19.042h-0.797v-4.426h-1.486v-0.7h3.779v0.7h-1.496V19.042z"/>
        <path fill="#FFFFFF" d="M79.594,19.169c-0.722,0-1.299-0.3-1.73-0.902v2.728h-0.796v-7.08h0.796v0.764
            c0.191-0.269,0.439-0.484,0.743-0.648c0.304-0.162,0.633-0.244,0.987-0.244c0.679,0,1.229,0.242,1.65,0.727
            c0.42,0.484,0.632,1.137,0.632,1.958c0,0.821-0.211,1.475-0.632,1.963C80.823,18.925,80.273,19.169,79.594,19.169z M79.392,18.458
            c0.503,0,0.903-0.185,1.2-0.557c0.297-0.372,0.446-0.847,0.446-1.427c0-0.58-0.149-1.055-0.446-1.423
            c-0.297-0.368-0.697-0.552-1.2-0.552c-0.304,0-0.599,0.079-0.885,0.239c-0.287,0.159-0.501,0.352-0.642,0.578v2.314
            c0.141,0.234,0.355,0.43,0.642,0.589C78.792,18.378,79.088,18.458,79.392,18.458z"/>
        <path fill="#FFFFFF" d="M87.14,19.042h-0.796v-0.584c-0.432,0.474-0.998,0.711-1.698,0.711c-0.474,0-0.891-0.151-1.252-0.456
            c-0.361-0.304-0.542-0.718-0.542-1.242c0-0.538,0.178-0.954,0.537-1.247c0.357-0.294,0.776-0.441,1.257-0.441
            c0.729,0,1.295,0.234,1.698,0.7V15.56c0-0.34-0.121-0.605-0.361-0.796c-0.241-0.191-0.552-0.286-0.934-0.286
            c-0.602,0-1.126,0.237-1.571,0.711l-0.372-0.552c0.545-0.566,1.228-0.849,2.049-0.849c0.588,0,1.065,0.141,1.433,0.424
            c0.368,0.283,0.552,0.718,0.552,1.306V19.042z M84.933,18.596c0.637,0,1.107-0.213,1.412-0.637v-0.966
            c-0.304-0.424-0.775-0.637-1.412-0.637c-0.368,0-0.67,0.104-0.908,0.313c-0.237,0.208-0.355,0.479-0.355,0.812
            c0,0.325,0.118,0.592,0.355,0.801C84.262,18.492,84.565,18.596,84.933,18.596z"/>
        <path fill="#FFFFFF" d="M92.978,19.042h-0.923l-1.539-2.102l-1.539,2.102h-0.913l1.963-2.632l-1.857-2.494h0.924l1.422,1.953
            l1.423-1.953h0.924l-1.858,2.494L92.978,19.042z"/>
        <path fill="#FFFFFF" d="M97.58,18.394c-0.464,0.517-1.078,0.775-1.842,0.775c-0.764,0-1.378-0.258-1.841-0.775
            c-0.464-0.516-0.695-1.156-0.695-1.921c0-0.764,0.231-1.403,0.695-1.916c0.464-0.513,1.078-0.769,1.841-0.769
            c0.764,0,1.378,0.256,1.842,0.769c0.464,0.513,0.695,1.152,0.695,1.916C98.274,17.238,98.043,17.878,97.58,18.394z M94.49,17.88
            c0.308,0.386,0.723,0.578,1.247,0.578c0.523,0,0.937-0.192,1.242-0.578c0.304-0.385,0.456-0.855,0.456-1.406
            c0-0.552-0.152-1.019-0.456-1.401c-0.305-0.382-0.719-0.573-1.242-0.573c-0.524,0-0.939,0.193-1.247,0.578
            c-0.308,0.386-0.461,0.851-0.461,1.396C94.029,17.025,94.183,17.495,94.49,17.88z"/>
        <path fill="#FFFFFF" d="M102.446,19.042H99.57v-5.127h2.823c0.446,0,0.798,0.121,1.056,0.361c0.258,0.241,0.387,0.559,0.387,0.955
            c0,0.291-0.079,0.54-0.239,0.749c-0.159,0.208-0.356,0.348-0.589,0.419c0.261,0.064,0.483,0.216,0.663,0.456
            c0.18,0.241,0.27,0.506,0.27,0.796c0,0.417-0.133,0.754-0.398,1.008C103.279,18.915,102.913,19.042,102.446,19.042z
            M102.255,16.059c0.241,0,0.428-0.065,0.563-0.196c0.135-0.131,0.202-0.302,0.202-0.515c0-0.226-0.067-0.405-0.202-0.536
            c-0.134-0.131-0.322-0.196-0.563-0.196h-1.889v1.444H102.255z M102.287,18.341c0.255,0,0.456-0.071,0.605-0.212
            c0.148-0.142,0.223-0.332,0.223-0.573c0-0.219-0.074-0.407-0.223-0.563c-0.149-0.156-0.35-0.234-0.605-0.234h-1.921v1.582H102.287z
            "/>
        <path fill="#FFFFFF" d="M109.451,19.042h-0.796v-0.584c-0.432,0.474-0.998,0.711-1.698,0.711c-0.474,0-0.891-0.151-1.253-0.456
            c-0.361-0.304-0.541-0.718-0.541-1.242c0-0.538,0.178-0.954,0.536-1.247c0.357-0.294,0.776-0.441,1.257-0.441
            c0.729,0,1.295,0.234,1.698,0.7V15.56c0-0.34-0.121-0.605-0.361-0.796c-0.241-0.191-0.552-0.286-0.934-0.286
            c-0.602,0-1.126,0.237-1.571,0.711l-0.371-0.552c0.545-0.566,1.227-0.849,2.049-0.849c0.587,0,1.065,0.141,1.433,0.424
            c0.368,0.283,0.552,0.718,0.552,1.306V19.042z M107.243,18.596c0.637,0,1.107-0.213,1.412-0.637v-0.966
            c-0.304-0.424-0.775-0.637-1.412-0.637c-0.368,0-0.67,0.104-0.908,0.313c-0.237,0.208-0.355,0.479-0.355,0.812
            c0,0.325,0.118,0.592,0.355,0.801C106.573,18.492,106.875,18.596,107.243,18.596z"/>
        <path fill="#FFFFFF" d="M111.839,19.042h-0.796v-5.127h0.796v2.133h2.675v-2.133h0.796v5.127h-0.796v-2.293h-2.675V19.042z"/>
        <path fill="#FFFFFF" d="M117.666,19.042h-0.765v-5.127h0.796v3.917l2.685-3.917h0.785v5.127h-0.796v-3.991L117.666,19.042z"/>
        <path fill="#FFFFFF" d="M125.074,19.169c-0.764,0-1.39-0.249-1.879-0.748c-0.488-0.499-0.732-1.148-0.732-1.947
            c0-0.75,0.24-1.385,0.722-1.905c0.481-0.52,1.083-0.78,1.804-0.78c0.757,0,1.357,0.26,1.799,0.78
            c0.442,0.52,0.663,1.176,0.663,1.969v0.201h-4.15c0.035,0.503,0.219,0.924,0.552,1.263c0.332,0.34,0.764,0.51,1.295,0.51
            c0.637,0,1.164-0.216,1.582-0.648l0.382,0.52C126.589,18.908,125.909,19.169,125.074,19.169z M126.666,16.155
            c-0.007-0.439-0.156-0.833-0.446-1.183c-0.29-0.35-0.704-0.526-1.242-0.526c-0.51,0-0.911,0.174-1.204,0.52
            c-0.294,0.347-0.451,0.743-0.472,1.189H126.666z"/>
    </g>
</svg>