<svg version="1.1" xmlns="http://www.w3.org/2000/svg" xmlns:xlink="http://www.w3.org/1999/xlink" x="0px" y="0px" width="56.69px" height="56.69px" viewBox="0 0 56.69 56.69" enable-background="new 0 0 56.69 56.69" xml:space="preserve">
	<path fill="#221F1F" d="M42.462,7.738H19.911c-0.007,0-0.013,0.004-0.02,0.004c-0.072,0.001-0.14,0.024-0.208,0.042
	c-0.047,0.012-0.097,0.014-0.14,0.034c-0.047,0.02-0.085,0.058-0.129,0.086c-0.056,0.038-0.115,0.069-0.162,0.118
	c-0.006,0.005-0.013,0.007-0.018,0.013l-7.553,8.238c-0.191,0.208-0.255,0.479-0.221,0.739c-0.003,0.036-0.021,0.067-0.021,0.104
	v12.282c0,0.002-0.001,0.004-0.001,0.006v15.902c0,0.505,0.41,0.916,0.915,0.916h7.556h14.994h7.557
	c0.506,0,0.915-0.411,0.915-0.916v-8.461v-6.794v-0.648V8.654C43.377,8.148,42.968,7.738,42.462,7.738z M18.996,11.006V16.2h-4.762
	L18.996,11.006z M41.546,44.391h-7.557H20.827h-7.556V30.055c0-0.002,0.001-0.002,0.001-0.004V18.032h6.639
	c0.505,0,0.916-0.411,0.916-0.917V9.569h20.719v19.834v0.648v5.878V44.391z"/>
	<circle fill="none" stroke="#221F1F" stroke-width="2" stroke-miterlimit="10" cx="28.632" cy="28.073" r="26.709"/>
	<line fill="none" stroke="#221F1F" stroke-linecap="round" stroke-miterlimit="10" x1="16.085" y1="23.462" x2="37.376" y2="23.462"/>
	<line fill="none" stroke="#221F1F" stroke-linecap="round" stroke-miterlimit="10" x1="16.085" y1="30.014" x2="37.376" y2="30.014"/>
	<line fill="none" stroke="#221F1F" stroke-linecap="round" stroke-miterlimit="10" x1="16.085" y1="36.564" x2="37.376" y2="36.564"/>
</svg>