<svg version="1.1" xmlns="http://www.w3.org/2000/svg" xmlns:xlink="http://www.w3.org/1999/xlink" x="0px" y="0px" width="56.69px" height="56.69px" viewBox="0 0 56.69 56.69" enable-background="new 0 0 56.69 56.69" xml:space="preserve">
	<polygon fill="#ffca05" points="43.646,11.064 39.981,11.064 49.419,27.414 34.296,27.414 6.271,27.414 6.271,30.586 34.296,30.586 49.419,30.586 39.981,46.936 43.646,46.936 54,29 "/>
</svg>
